{
  "project_info": {
    "project_number": "438486209698",
    "firebase_url": "https://truyentienhiep-40354.firebaseio.com",
    "project_id": "truyentienhiep-40354",
    "storage_bucket": "truyentienhiep-40354.appspot.com"
  },
  "client": [
    {
      "client_info": {
        "mobilesdk_app_id": "1:438486209698:android:81c971b53b882163",
        "android_client_info": {
          "package_name": "com.devteam.truyentienhiep"
        }
      },
      "oauth_client": [
        {
          "client_id": "438486209698-b8k04s4o7kar2ru37it16l8qimae6gte.apps.googleusercontent.com",
          "client_type": 1,
          "android_info": {
            "package_name": "com.devteam.truyentienhiep",
            "certificate_hash": "9403207fa51915ce0a2dd660c534bc05a699cab1"
          }
        },
        {
          "client_id": "438486209698-d92j131ohv08oiasbtudgtoim04t1kfc.apps.googleusercontent.com",
          "client_type": 3
        }
      ],
      "api_key": [
        {
          "current_key": "AIzaSyBe7mJEqUMquSFdTdYsARHWaGs4XHrVEk4"
        }
      ],
      "services": {
        "analytics_service": {
          "status": 1
        },
        "appinvite_service": {
          "status": 2,
          "other_platform_oauth_client": [
            {
              "client_id": "438486209698-d92j131ohv08oiasbtudgtoim04t1kfc.apps.googleusercontent.com",
              "client_type": 3
            }
          ]
        },
        "ads_service": {
          "status": 2
        }
      }
    }
  ],
  "configuration_version": "1"
}